{
  "users": [
    {
      "name": "admin",
      "email": "admin",
      "password": "admin",
      "avatar": "https://lh3.googleusercontent.com/proxy/wllZmhqgFfSLe97blLKDEcN2Ke6KBnocCP8yPdQG7sr-D-z6AQGJrwpxO5zyDYI5O5FwyT9mabhgMXM01UVA797KK7xtdWzHOMPwA5sKYeK9vm4hlBxFeNS6JwU-VA",
      "role": "admin",
      "id": "f4d31149-c6e5-41f7-9071-37af3606f0d0",
      "createdAt": "2021-02-22T07:08:56.396Z"
    },
    {
      "name": "user",
      "email": "user",
      "password": "user",
      "avatar": "https://i.pinimg.com/originals/6a/87/00/6a87006a2e50cdacfd77020b8ad30868.png",
      "role": "user",
      "id": "7ee0efb1-25a8-40dc-9558-f967de99d02f",
      "createdAt": "2021-02-22T09:26:04.504Z"
    },
    {
      "name": "user1",
      "email": "user1",
      "password": "user",
      "avatar": "https://i.pinimg.com/originals/6a/87/00/6a87006a2e50cdacfd77020b8ad30868.png",
      "role": "user",
      "id": "6a2030e6-7757-44f0-a57d-66692693868c",
      "createdAt": "2021-02-23T00:40:56.110Z",
      "editedAt": "2021-02-23T00:40:56.110Z"
    }
  ],
  "chats": [
    {
      "id": "80f08600-1b8f-11e8-9629-c7eca82aa7bd",
      "userId": "9e243930-83c9-11e9-8e0c-8f1a686f4ce4",
      "avatar": "https://resizing.flixster.com/kr0IphfLGZqni5JOWDS2P1-zod4=/280x250/v1.cjs0OTQ2NztqOzE4NDk1OzEyMDA7MjgwOzI1MA",
      "user": "Ruth",
      "text": "I don’t *** understand. It's the Panama accounts",
      "createdAt": "2020-07-16T19:48:12.936Z",
      "editedAt": ""
    },
    {
      "id": "80e00b40-1b8f-11e8-9629-c7eca82aa7bd",
      "userId": "533b5230-1b8f-11e8-9629-c7eca82aa7bd",
      "avatar": "https://resizing.flixster.com/EVAkglctn7E9B0hVKJrueplabuQ=/220x196/v1.cjs0NjYwNjtqOzE4NDk1OzEyMDA7MjIwOzE5Ng",
      "user": "Wendy",
      "text": "Tells exactly what happened.",
      "createdAt": "2020-07-16T19:48:42.481Z",
      "editedAt": "2020-07-16T19:48:47.481Z"
    },
    {
      "id": "80e03259-1b8f-11e8-9629-c7eca82aa7bd",
      "userId": "533b5230-1b8f-11e8-9629-c7eca82aa7bd",
      "avatar": "https://resizing.flixster.com/EVAkglctn7E9B0hVKJrueplabuQ=/220x196/v1.cjs0NjYwNjtqOzE4NDk1OzEyMDA7MjIwOzE5Ng",
      "user": "Wendy",
      "text": "You were doing your daily bank transfers and…",
      "createdAt": "2020-07-16T19:48:56.273Z",
      "editedAt": ""
    },
    {
      "id": "80e03258-1b8f-11e8-9629-c7eca82aa7bd",
      "userId": "9e243930-83c9-11e9-8e0c-8f1a686f4ce4",
      "avatar": "https://resizing.flixster.com/kr0IphfLGZqni5JOWDS2P1-zod4=/280x250/v1.cjs0OTQ2NztqOzE4NDk1OzEyMDA7MjgwOzI1MA",
      "user": "Ruth",
      "text": "Yes, like I’ve been doing every *** day without red *** flag",
      "createdAt": "2020-07-16T19:49:14.480Z",
      "editedAt": ""
    },
    {
      "id": "80e03257-1b8f-11e8-9629-c7eca82aa7bd",
      "userId": "9e243930-83c9-11e9-8e0c-8f1a686f4ce4",
      "avatar": "https://resizing.flixster.com/kr0IphfLGZqni5JOWDS2P1-zod4=/280x250/v1.cjs0OTQ2NztqOzE4NDk1OzEyMDA7MjgwOzI1MA",
      "user": "Ruth",
      "text": "There`s never been a *** problem.",
      "createdAt": "2020-07-16T19:48:28.769Z",
      "editedAt": ""
    },
    {
      "id": "80e03256-1b8f-11e8-9629-c7eca82aa7bd",
      "userId": "4b003c20-1b8f-11e8-9629-c7eca82aa7bd",
      "avatar": "https://resizing.flixster.com/PCEX63VBu7wVvdt9Eq-FrTI6d_4=/300x300/v1.cjs0MzYxNjtqOzE4NDk1OzEyMDA7MzQ5OzMxMQ",
      "user": "Helen",
      "text": "Why this account?",
      "createdAt": "2020-07-16T19:49:33.195Z",
      "editedAt": ""
    },
    {
      "id": "80e03255-1b8f-11e8-9629-c7eca82aa7bd",
      "userId": "9e243930-83c9-11e9-8e0c-8f1a686f4ce4",
      "avatar": "https://resizing.flixster.com/kr0IphfLGZqni5JOWDS2P1-zod4=/280x250/v1.cjs0OTQ2NztqOzE4NDk1OzEyMDA7MjgwOzI1MA",
      "user": "Ruth",
      "text": "I don`t *** know! I don`t know!",
      "createdAt": "2020-07-16T19:49:45.821Z",
      "editedAt": ""
    },
    {
      "id": "80e03254-1b8f-11e8-9629-c7eca82aa7bd",
      "userId": "5328dba1-1b8f-11e8-9629-c7eca82aa7bd",
      "avatar": "https://www.aceshowbiz.com/images/photo/tom_pelphrey.jpg",
      "user": "Ben",
      "text": "What the ** is a red flag anyway?",
      "createdAt": "2020-07-16T19:50:07.708Z",
      "editedAt": ""
    },
    {
      "id": "80e03253-1b8f-11e8-9629-c7eca82aa7bd",
      "userId": "4b003c20-1b8f-11e8-9629-c7eca82aa7bd",
      "avatar": "https://resizing.flixster.com/PCEX63VBu7wVvdt9Eq-FrTI6d_4=/300x300/v1.cjs0MzYxNjtqOzE4NDk1OzEyMDA7MzQ5OzMxMQ",
      "user": "Helen",
      "text": "You said you could handle things",
      "createdAt": "2020-07-16T19:53:02.483Z",
      "editedAt": ""
    },
    {
      "id": "80e03252-1b8f-11e8-9629-c7eca82aa7bd",
      "userId": "9e243930-83c9-11e9-8e0c-8f1a686f4ce4",
      "avatar": "https://resizing.flixster.com/kr0IphfLGZqni5JOWDS2P1-zod4=/280x250/v1.cjs0OTQ2NztqOzE4NDk1OzEyMDA7MjgwOzI1MA",
      "user": "Ruth",
      "text": "I did what he taught me.",
      "createdAt": "2020-07-16T19:53:17.272Z",
      "editedAt": "2020-07-16T19:53:50.272Z"
    },
    {
      "id": "80e03251-1b8f-11e8-9629-c7eca82aa7bd",
      "userId": "9e243930-83c9-11e9-8e0c-8f1a686f4ce4",
      "avatar": "https://resizing.flixster.com/kr0IphfLGZqni5JOWDS2P1-zod4=/280x250/v1.cjs0OTQ2NztqOzE4NDk1OzEyMDA7MjgwOzI1MA",
      "user": "Ruth",
      "text": "it`s not my fucking fault!",
      "createdAt": "2020-07-16T19:53:49.171Z",
      "editedAt": ""
    },
    {
      "id": "80e03250-1b8f-11e8-9629-c7eca82aa7bd",
      "userId": "533b5230-1b8f-11e8-9629-c7eca82aa7bd",
      "avatar": "https://resizing.flixster.com/EVAkglctn7E9B0hVKJrueplabuQ=/220x196/v1.cjs0NjYwNjtqOzE4NDk1OzEyMDA7MjIwOzE5Ng",
      "user": "Wendy",
      "text": "Can you fix this? Can you fix it?",
      "createdAt": "2020-07-16T19:56:51.491Z",
      "editedAt": ""
    },
    {
      "id": "80e03249-1b8f-11e8-9629-c7eca82aa7bd",
      "userId": "4b003c20-1b8f-11e8-9629-c7eca82aa7bd",
      "avatar": "https://resizing.flixster.com/PCEX63VBu7wVvdt9Eq-FrTI6d_4=/300x300/v1.cjs0MzYxNjtqOzE4NDk1OzEyMDA7MzQ5OzMxMQ",
      "user": "Helen",
      "text": "Her best is gonna get us all killed.",
      "createdAt": "2020-07-16T19:57:07.965Z",
      "editedAt": "2020-07-16T19:57:15.965Z"
    },
    {
      "id": "80e03248-1b8f-11e8-9629-c7eca82aa7bd",
      "userId": "9e243930-83c9-11e9-8e0c-8f1a686f4ce4",
      "avatar": "https://resizing.flixster.com/kr0IphfLGZqni5JOWDS2P1-zod4=/280x250/v1.cjs0OTQ2NztqOzE4NDk1OzEyMDA7MjgwOzI1MA",
      "user": "Ruth",
      "text": "I don`t know how!",
      "createdAt": "2020-07-16T19:58:06.686Z",
      "editedAt": ""
    },
    {
      "id": "80e03247-1b8f-11e8-9629-c7eca82aa7bd",
      "userId": "9e243930-83c9-11e9-8e0c-8f1a686f4ce4",
      "avatar": "https://resizing.flixster.com/kr0IphfLGZqni5JOWDS2P1-zod4=/280x250/v1.cjs0OTQ2NztqOzE4NDk1OzEyMDA7MjgwOzI1MA",
      "user": "Ruth",
      "text": "it means that the accounts frozen that cause the feds might think that there’s a crime being committed.",
      "createdAt": "2020-07-16T19:52:04.375Z",
      "editedAt": ""
    },
    {
      "id": "80e03246-1b8f-11e8-9629-c7eca82aa7bd",
      "userId": "9e243930-83c9-11e9-8e0c-8f1a686f4ce4",
      "avatar": "https://resizing.flixster.com/kr0IphfLGZqni5JOWDS2P1-zod4=/280x250/v1.cjs0OTQ2NztqOzE4NDk1OzEyMDA7MjgwOzI1MA",
      "user": "Ruth",
      "text": "Like by me",
      "createdAt": "2020-07-16T19:52:15.334Z",
      "editedAt": ""
    },
    {
      "id": "80e03245-1b8f-11e8-9629-c7eca82aa7bd",
      "userId": "5328dba1-1b8f-11e8-9629-c7eca82aa7bd",
      "avatar": "https://www.aceshowbiz.com/images/photo/tom_pelphrey.jpg",
      "user": "Ben",
      "text": "aaaha!",
      "createdAt": "2020-07-16T19:58:17.878Z",
      "editedAt": ""
    },
    {
      "text": "xxxxxxxxxxxxxx",
      "userId": "7ee0efb1-25a8-40dc-9558-f967de99d02f",
      "user": "user",
      "avatar": "https://i.pinimg.com/originals/6a/87/00/6a87006a2e50cdacfd77020b8ad30868.png",
      "id": "1c0290bd-440b-4d3b-92b7-8fec15138aaa",
      "createdAt": "2021-02-23T04:18:04.902Z",
      "editedAt": "2021-02-23T05:06:45.255Z"
    },
    {
      "text": "yyyyyyyyyyyyy",
      "userId": "7ee0efb1-25a8-40dc-9558-f967de99d02f",
      "user": "user",
      "avatar": "https://i.pinimg.com/originals/6a/87/00/6a87006a2e50cdacfd77020b8ad30868.png",
      "id": "9b56fd69-34b7-4f44-a086-ca56e5cf1fba",
      "createdAt": "2021-02-23T04:20:38.014Z",
      "editedAt": "2021-02-23T05:09:32.818Z"
    },
    {
      "text": "ooooooooooooooo",
      "userId": "7ee0efb1-25a8-40dc-9558-f967de99d02f",
      "user": "user",
      "avatar": "https://i.pinimg.com/originals/6a/87/00/6a87006a2e50cdacfd77020b8ad30868.png",
      "id": "2ead4eaa-3ad2-49ad-84be-10f4b3fc9baf",
      "createdAt": "2021-02-23T04:23:33.537Z",
      "editedAt": "2021-02-23T05:22:02.926Z"
    },
    {
      "text": "zzzzzzzzzzzzzzzz",
      "userId": "7ee0efb1-25a8-40dc-9558-f967de99d02f",
      "user": "user",
      "avatar": "https://i.pinimg.com/originals/6a/87/00/6a87006a2e50cdacfd77020b8ad30868.png",
      "id": "1a89c15d-cdf4-4f5d-9c09-ce72f23a8da2",
      "createdAt": "2021-02-23T04:25:40.690Z",
      "editedAt": "2021-02-23T05:17:38.960Z"
    },
    {
      "text": "yyyyyyyyyyyyyyy",
      "userId": "7ee0efb1-25a8-40dc-9558-f967de99d02f",
      "user": "user",
      "avatar": "https://i.pinimg.com/originals/6a/87/00/6a87006a2e50cdacfd77020b8ad30868.png",
      "id": "4e8be148-cd43-4802-a3d0-a7905f34a43f",
      "createdAt": "2021-02-23T04:25:45.501Z",
      "editedAt": "2021-02-23T05:11:10.160Z"
    },
    {
      "text": "qqqqqqqqqqqqq",
      "userId": "7ee0efb1-25a8-40dc-9558-f967de99d02f",
      "user": "user",
      "avatar": "https://i.pinimg.com/originals/6a/87/00/6a87006a2e50cdacfd77020b8ad30868.png",
      "id": "56067e55-b979-4a80-8e5c-d85a905f6840",
      "createdAt": "2021-02-23T04:25:49.200Z",
      "editedAt": "2021-02-23T05:21:21.990Z"
    }
  ]
}